p -50.000 0.000 0.000 0.000 0.000 0.000 41.458 0.000 0.000 
p 120.010 11.983 1.994 170.048 -32.478 1.994 225.980 -82.176 1.994 
p 223.961 -124.560 0.035 223.961 -160.671 0.035 223.961 -206.498 0.035 
n
p -50.000 0.000 0.000 0.000 0.000 0.000 41.458 0.000 0.000 
p 220.000 0.000 0.035 280.000 0.000 0.035 281.000 0.000 0.035 
n
p -50.000 0.000 0.000 0.000 0.000 0.000 41.458 0.000 0.000 
p 289.146 0.000 0.035 349.146 0.000 0.035 414.026 0.000 0.035 
n
p -50.000 0.000 0.000 0.000 0.000 0.000 41.458 0.000 0.000 
p 138.672 1.516 0.000 191.053 -40.000 0.000 237.014 -76.427 0.000 
p 266.526 -122.765 0.000 287.909 -160.671 0.000 320.261 -218.022 0.000 
n
