p -50.000 0.000 0.000 0.000 0.000 0.000 50.000 0.000 0.000 
p 82.125 -0.000 20.000 125.000 -30.000 20.000 172.775 -63.429 20.000 
p 213.446 -60.000 0.000 263.446 -60.000 0.000 313.446 -60.000 0.000 
n
p -50.000 0.000 0.000 0.000 0.000 0.000 50.000 0.000 0.000 
p 230.000 0.000 0.000 280.000 0.000 0.000 330.000 0.000 0.000 
n
p -50.000 0.000 0.000 0.000 0.000 0.000 25.000 0.000 0.000 
p 51.286 0.366 3.524 127.584 17.931 21.007 168.024 27.241 30.274 
p 232.981 10.624 52.974 274.482 -33.213 46.237 319.679 -80.953 38.901 
p 323.000 -164.937 17.690 323.000 -214.217 17.690 323.000 -264.217 17.690 
n
p -50.000 0.000 0.000 0.000 0.000 0.000 25.000 0.000 0.000 
p 117.515 -4.469 0.000 160.389 25.531 0.000 207.501 58.496 0.000 
p 212.874 80.164 0.000 230.478 114.779 0.000 253.144 159.346 0.000 
n
p -50.000 0.000 0.000 0.000 0.000 0.000 50.000 0.000 0.000 
p 83.966 -14.765 7.912 134.071 0.325 7.912 181.947 14.744 7.912 
p 227.144 46.248 -3.507 275.396 39.507 -7.700 324.733 32.615 -11.987 
p 384.140 -17.652 -6.361 398.911 -72.933 -6.361 411.819 -121.238 -6.361 
n
p -50.000 0.000 0.000 0.000 0.000 0.000 25.000 0.000 0.000 
p 51.286 0.366 3.524 127.584 17.931 21.007 168.024 27.241 30.274 
p 238.174 10.726 67.225 274.482 -33.213 46.237 336.553 -108.328 10.358 
p 312.637 -135.706 68.885 323.000 -214.217 56.498 326.672 -242.035 52.109 
n
p -50.000 0.000 0.000 0.000 0.000 0.000 25.000 0.000 0.000 
p 51.286 0.366 3.524 127.584 17.931 21.007 168.024 27.241 30.274 
p 232.981 10.624 52.974 274.482 -33.213 46.237 297.081 -57.083 42.569 
p 312.098 -89.007 32.647 315.690 -123.138 32.774 318.930 -153.922 32.888 
p 320.999 -166.636 43.187 321.593 -193.742 41.288 322.182 -220.611 39.406 
n
